Obtenir les résultats d'une ACM pour chaque modalités. — extraire_modalites • ggacm
…
# Puis on peut en extraire le tableau descriptif de chaque modalité :
resultat |> extraire_modalites()
#> # A tibble: 189 × 21
#>    type    variables modalites     n pourcentage dim1_coord dim1_cos2 dim1_vtest
#>    <chr>   <chr>     <chr>     <int>       <dbl>      <dbl>     <dbl>      <dbl>
#>  1 variab… personne  Antoine …     1         1.8      -0.53      0.01      -0.53
#>  2 variab… titre     Antoine …     1         1.8      -0.53      0.01      -0.53
#>  3 variab… titre     BLAST, L…     1         1.8      -0.86      0.01      -0.86
#>  4 variab… titre     Bolchege…     1         1.8      -0.23      0         -0.23
#>  5 variab… titre     Canard R…     1         1.8      -0.34      0         -0.34
#>  6 variab… titre     Cass And…     1         1.8      -1.14      0.02      -1.14
#>  7 variab… titre     Cercle A…     1         1.8       0.7       0.01       0.7 
#>  8 variab… personne  Christop…     1         1.8       1.19      0.03       1.19
#>  9 variab… titre     Christop…     1         1.8       1.19      0.03       1.19
#> 10 variab… personne  Clément …     1         1.8      -0.25      0         -0.25
#> # ℹ 179 more rows
#> # ℹ 13 more variables: dim1_contrib <dbl>, dim2_coord <dbl>, dim2_cos2 <dbl>,
#> #   dim2_vtest <dbl>, dim2_contrib <dbl>, dim3_coord <dbl>, dim3_cos2 <dbl>,
#> #   dim3_vtest <dbl>, dim3_contrib <dbl>, dim4_coord <dbl>, dim4_cos2 <dbl>,
#> #   dim4_vtest <dbl>, dim4_contrib <dbl>
…
