Utilisation • ggacm
…
      Utilisation

      Source: vignettes/Utilisation.Rmd
      Utilisation.Rmd

library(ggacm)

Cette vignette de présentation montre comment utiliser le
package.

Pour cela, je me base sur un jeu de donnée d’exemple tiré de mon
mémoire de M2 sur les créateurs de contenus politiques.

createurs_de_contenus_pol 
#> # A tibble: 56 × 24
#>    personne  titre orientation orientation2 debut visage_decouvert abonnes genre
#>    <chr>     <chr> <fct>       <fct>        <fct> <fct>            <fct>   <fct>
#>  1 Antoine … Anto… De gauche   Progressiste 2015… Montre son visa… Entre … Homme
#>  2 Salomé S… BLAS… De gauche   Progressiste 2020… Montre son visa… Plus d… Femme
#>  3 Benjamin… Bolc… De gauche   Progressiste 2014… Montre son visa… Entre … Homme
#>  4 Aymric D… Cana… De gauche   Progressiste 2015… Montre son visa… Entre … Homme
#>  5 Cassandr… Cass… De gauche   Progressiste 2020… Montre son visa… 50k ab… Homme
#>  6 Pierre-Y… Cerc… De droite   Conservateur 2015… Montre son visa… Entre … Homme
#>  7 Christop… Chri… De droite   Conservateur 2014… Montre son visa… Entre … Homme
#>  8 Clément … Clém… De gauche   Progressiste 2020… Montre son visa… Entre … Homme
#>  9 Charléli… DANY… De gauche   Progressiste 2020… Montre son visa… Entre … Homme
#> 10 Julien G… Data… De gauche   Progressiste 2014… Ne montre pas s… Entre … Homme
#> # ℹ 46 more rows
#> # ℹ 16 more variables: age <fct>, streamer_plein_temps <fct>, collectif <fct>,
#> #   livre <fct>, podcast <fct>, twitter <fct>, facebook <fct>, instagram <fct>,
#> #   tiktok <fct>, discord <fct>, twitch <fct>, site_perso <fct>, CNC <fct>,
#> #   soutenir <fct>, partenariat_entreprise <fct>, autres_services <fct>
…
1 Seules les modalités actives dont la contribution est supérieure à 3 % sont représentées.

2 Moyenne des coordonnées des individus partageant la modalité

Pour extraire les résultats de l’ACM, on peut employer :
extraire_modalites pour avoir les résultats par modalités et
extraire_individus pour avoir les résultats pour chaque individu.

extraire_modalites(resultat_acm) 
#> # A tibble: 189 × 21
#>    type    variables modalites     n pourcentage dim1_coord dim1_cos2 dim1_vtest
#>    <chr>   <chr>     <chr>     <int>       <dbl>      <dbl>     <dbl>      <dbl>
#>  1 variab… orientat… Divers        9        16.1       0.79      0.12       2.57
#>  2 variab… orientat… Progress…    29        51.8      -0.79      0.67      -6.06
#>  3 variab… orientat… Conserva…    18        32.1       0.87      0.36       4.46
#>  4 variab… debut     2014 et …    10        17.9       0.75      0.12       2.58
#>  5 variab… debut     2015 - 2…    29        51.8      -0.01      0         -0.05
#>  6 variab… debut     2020 et …    17        30.4      -0.43      0.08      -2.09
#>  7 variab… visage_d… Montre s…    52        92.9       0.02      0          0.46
#>  8 variab… visage_d… Ne montr…     4         7.1      -0.22      0         -0.46
#>  9 variab… abonnes   50k abon…    15        26.8      -0.91      0.3       -4.09
#> 10 variab… abonnes   Entre 50…    13        23.2       0.09      0          0.37
#> # ℹ 179 more rows
#> # ℹ 13 more variables: dim1_contrib <dbl>, dim2_coord <dbl>, dim2_cos2 <dbl>,
#> #   dim2_vtest <dbl>, dim2_contrib <dbl>, dim3_coord <dbl>, dim3_cos2 <dbl>,
#> #   dim3_vtest <dbl>, dim3_contrib <dbl>, dim4_coord <dbl>, dim4_cos2 <dbl>,
#> #   dim4_vtest <dbl>, dim4_contrib <dbl>

Pour extraire les résultats pour chaque individu, il est nécessaire
de donner à R le nom de la colonne qui identifie ces individus.

extraire_individus(resultat_acm, nom_variable_individu = "personne")
#> Joining with `by = join_by(personne)`
#> # A tibble: 68 × 44
#>    modalites     dim1_coord dim1_cos2 dim1_vtest dim2_coord dim2_cos2 dim2_vtest
#>    <chr>              <dbl>     <dbl>      <dbl>      <dbl>     <dbl>      <dbl>
#>  1 Alexandre          -0.82      0.01      -0.82      -1.55      0.04      -1.55
#>  2 Alexis Bellas       0.34      0          0.34       0.1       0          0.1 
#>  3 Anaïs Garest…      -1.4       0.04      -1.4       -0.62      0.01      -0.62
#>  4 Anne-Thaïs d…       1.23      0.03       1.23      -1.55      0.04      -1.55
#>  5 Antoine Goya       -0.41      0         -0.41      -0.7       0.01      -0.7 
#>  6 Arnaud Ganti…      -1.38      0.03      -1.38       0.44      0          0.44
#>  7 Aymric Dlavo       -0.14      0         -0.14       0.4       0          0.4 
#>  8 Baptiste Pen…      -0.55      0.01      -0.55       1.39      0.04       1.39
#>  9 Benjamin Pat…       0.03      0          0.03       1.43      0.04       1.43
#> 10 Bertrand Pil…       0.95      0.02       0.95       2.06      0.08       2.06
#> # ℹ 58 more rows
#> # ℹ 37 more variables: dim3_coord <dbl>, dim3_cos2 <dbl>, dim3_vtest <dbl>,
#> #   dim4_coord <dbl>, dim4_cos2 <dbl>, dim4_vtest <dbl>, titre <chr>,
#> #   orientation <chr>, orientation2 <chr>, debut <chr>, visage_decouvert <chr>,
#> #   abonnes <chr>, genre <chr>, age <chr>, streamer_plein_temps <chr>,
#> #   collectif <chr>, livre <chr>, podcast <chr>, twitter <chr>, facebook <chr>,
#> #   instagram <chr>, tiktok <chr>, discord <chr>, twitch <chr>, …
…
